…
I propose to include these statistically significant variables in the
model.

``` r
cv_df =
  crossv_mc(data, 100)

cv_df %>% pull(train) %>% .[[1]] %>% as_tibble
```

    ## # A tibble: 3,473 x 20
    ##    babysex bhead blength   bwt  delwt fincome frace gaweeks malform
    ##    <fct>   <dbl>   <dbl> <dbl>  <dbl>   <dbl> <fct>   <dbl>   <dbl>
    ##  1 2          34      51  3629 80286.      35 1        39.9       0
    ##  2 1          34      48  3062 70760.      65 2        25.9       0
    ##  3 2          36      50  3345 67132.      85 1        39.9       0
    ##  4 1          34      52  3062 71214.      55 1        40         0
    ##  5 2          34      52  3374 70760.       5 1        41.6       0
    ##  6 1          33      52  3374 58513.      55 1        40.7       0
    ##  7 2          33      46  2523 57153.      96 2        40.3       0
    ##  8 2          33      49  2778 63503.       5 1        37.4       0
    ##  9 1          36      52  3515 66224.      85 1        40.3       0
    ## 10 1          33      50  3459 76657.      75 2        40.7       0
    ## # ... with 3,463 more rows, and 11 more variables: menarche <dbl>,
    ## #   mheight <dbl>, momage <dbl>, mrace <fct>, parity <dbl>, pnumlbw <dbl>,
    ## #   pnumsga <dbl>, ppbmi <dbl>, ppwt <dbl>, smoken <dbl>, wtgain <dbl>

``` r
cv_df %>% pull(test) %>% .[[1]] %>% as_tibble
```

    ## # A tibble: 869 x 20
    ##    babysex bhead blength   bwt  delwt fincome frace gaweeks malform
    ##    <fct>   <dbl>   <dbl> <dbl>  <dbl>   <dbl> <fct>   <dbl>   <dbl>
    ##  1 2          33      49  2551 54431.      75 2        38.1       0
    ##  2 1          35      56  3232 66678.      55 1        42.1       0
    ##  3 1          34      52  3203 60781.      25 1        41.1       0
    ##  4 1          34      63  3175 64864.      25 1        41.9       0
    ##  5 1          35      51  3345 65771.      75 1        41.3       0
    ##  6 2          34      49  3118 73028.      45 2        38.9       0
    ##  7 1          36      54  3402 73028.      95 1        40.1       0
    ##  8 1          35      55  3856 77564.      85 1        41.1       0
    ##  9 2          35      53  3600 63956.      35 1        42.3       0
    ## 10 2          34      49  2948 61235.      75 1        42.7       0
    ## # ... with 859 more rows, and 11 more variables: menarche <dbl>,
    ## #   mheight <dbl>, momage <dbl>, mrace <fct>, parity <dbl>, pnumlbw <dbl>,
    ## #   pnumsga <dbl>, ppbmi <dbl>, ppwt <dbl>, smoken <dbl>, wtgain <dbl>
…
